<svg width="48" height="48" viewBox="0 0 48 48" fill="none" xmlns="http://www.w3.org/2000/svg">
<path d="M38.8593 17.6743H35.8374L36.7479 7.22033C36.7496 7.20139 36.7499 7.18274 36.75 7.16408C36.75 7.16249 36.7501 7.16099 36.7501 7.15939C36.7501 7.15911 36.7501 7.15893 36.7501 7.15864C36.7501 6.87411 36.5785 6.62333 36.3262 6.5143C36.3241 6.51336 36.322 6.51224 36.3198 6.5113C36.3042 6.50474 36.288 6.49911 36.2716 6.49367C36.2655 6.4917 36.2597 6.48927 36.2536 6.48739C36.2403 6.48336 36.2266 6.48017 36.2131 6.47689C36.2035 6.47464 36.1943 6.47192 36.1846 6.47005C36.1727 6.4677 36.1604 6.4662 36.1482 6.46442C36.1367 6.46274 36.1255 6.46077 36.114 6.45974C36.112 6.45955 36.1102 6.45917 36.1082 6.45898C36.0959 6.45786 36.0837 6.45805 36.0714 6.45758C36.0631 6.4573 36.0551 6.45636 36.0468 6.45636H36.038C36.0373 6.45636 36.0365 6.45636 36.0359 6.45636H21.6573C21.2691 6.45636 20.9541 6.77136 20.9541 7.15949C20.9541 7.54668 21.2691 7.86262 21.6573 7.86262H35.2804L33.8811 23.9291C33.8809 23.9303 33.8809 23.9315 33.8807 23.9327L33.5277 27.9866H9.09547L9.50413 23.768H14.1561C14.5445 23.768 14.8592 23.4532 14.8592 23.0649C14.8592 22.6766 14.5445 22.3618 14.1561 22.3618H9.64044L10.5033 13.4559H17.9073C18.2957 13.4559 18.6104 13.1411 18.6104 12.7528C18.6104 12.3645 18.2957 12.0497 17.9073 12.0497H10.6396L11.0454 7.86262H18.8448C19.232 7.86262 19.5479 7.54668 19.5479 7.15949C19.5479 6.77136 19.232 6.45636 18.8448 6.45636H10.4072C10.4069 6.45636 10.4066 6.45645 10.4062 6.45645C10.0759 6.45636 9.78941 6.68886 9.72013 7.01118C9.71966 7.01352 9.71882 7.01577 9.71835 7.01811C9.71479 7.03564 9.71244 7.05355 9.7101 7.07155C9.70944 7.07727 9.70823 7.08271 9.70766 7.08843C9.70757 7.08955 9.70729 7.09058 9.70719 7.09171L9.22682 12.0497H0.703128C0.31472 12.0497 0 12.3645 0 12.7528C0 13.1411 0.31472 13.4559 0.703128 13.4559H9.0905L8.22763 22.3618H5.71896C5.33055 22.3618 5.01583 22.6766 5.01583 23.0649C5.01583 23.4532 5.33055 23.768 5.71896 23.768H8.09141L7.62153 28.6169C7.62144 28.6176 7.62144 28.6184 7.62134 28.619L6.89487 36.1171C6.89478 36.1179 6.89468 36.1189 6.89459 36.1196L6.89431 36.1223C6.89337 36.1321 6.89347 36.1417 6.8929 36.1514C6.89225 36.1643 6.89093 36.177 6.89093 36.1901C6.89093 36.1907 6.89103 36.1913 6.89103 36.1919C6.89103 36.21 6.89234 36.2278 6.89365 36.2456C6.89421 36.2513 6.89403 36.2572 6.89468 36.2628C6.89656 36.281 6.89965 36.2989 6.90293 36.3167C6.90387 36.3219 6.90434 36.3273 6.90537 36.3324C6.90809 36.3459 6.91193 36.359 6.9155 36.3722C6.91793 36.3815 6.9199 36.3909 6.92272 36.4C6.92356 36.4026 6.92468 36.405 6.92543 36.4076C6.95947 36.5123 7.01722 36.6062 7.09259 36.6829C7.094 36.6843 7.09512 36.6859 7.09653 36.6872C7.10403 36.6947 7.11218 36.7014 7.12006 36.7086C7.16853 36.753 7.22328 36.7907 7.28319 36.8202C7.29565 36.8264 7.30794 36.8329 7.32069 36.8382C7.32453 36.8399 7.32865 36.841 7.33259 36.8425C7.35022 36.8496 7.36794 36.8563 7.38622 36.862C7.3879 36.8625 7.3895 36.8628 7.39119 36.8633C7.412 36.8695 7.433 36.875 7.45447 36.8794C7.45728 36.8799 7.46019 36.8801 7.4629 36.8807C7.48334 36.8845 7.50387 36.8878 7.52478 36.8899C7.52525 36.8899 7.52562 36.89 7.52609 36.8901C7.54915 36.8923 7.57203 36.8934 7.59472 36.8934C7.595 36.8934 7.59537 36.8933 7.59575 36.8933H10.7259C11.0715 39.514 13.3183 41.5436 16.0319 41.5436C18.7453 41.5436 20.992 39.514 21.3377 36.8933H32.6158C32.9615 39.514 35.2081 41.5436 37.9216 41.5436C40.6351 41.5436 42.882 39.514 43.2277 36.8933H46.3586C46.3591 36.8933 46.3597 36.8934 46.3601 36.8934C46.3836 36.8934 46.4066 36.892 46.4295 36.8898C46.4336 36.8894 46.4376 36.8886 46.4417 36.8881C46.46 36.8859 46.4782 36.8834 46.496 36.8798C46.5037 36.8783 46.5111 36.8763 46.5187 36.8745C46.5324 36.8713 46.5463 36.8679 46.5598 36.8639C46.569 36.8612 46.5779 36.858 46.5869 36.8549C46.5984 36.851 46.61 36.8468 46.6213 36.8423C46.6311 36.8384 46.6403 36.8342 46.6498 36.83C46.6601 36.8252 46.6704 36.8203 46.6805 36.8152C46.69 36.8103 46.6992 36.8052 46.7084 36.8C46.7181 36.7943 46.7276 36.7885 46.7371 36.7825C46.7459 36.7769 46.7547 36.7712 46.7632 36.7652C46.7727 36.7585 46.7818 36.7515 46.7911 36.7444C46.7988 36.7383 46.8066 36.7323 46.8141 36.7259C46.8237 36.7178 46.8328 36.7092 46.842 36.7005C46.8484 36.6944 46.855 36.6884 46.8612 36.682C46.871 36.6721 46.8802 36.6616 46.8895 36.651C46.8945 36.6453 46.8997 36.6398 46.9044 36.6339C46.9147 36.6212 46.9241 36.6081 46.9335 36.5948C46.9367 36.5903 46.9402 36.5859 46.9433 36.5813C46.9548 36.5641 46.9656 36.5465 46.9755 36.5283C46.9762 36.5272 46.977 36.5261 46.9775 36.5249C46.9881 36.5054 46.9978 36.4854 47.0065 36.4648C47.009 36.4589 47.0108 36.4528 47.0132 36.4469C47.0189 36.4324 47.0245 36.4178 47.0293 36.4028C47.0324 36.393 47.0347 36.383 47.0374 36.3731C47.0405 36.3614 47.0437 36.3498 47.0464 36.3379C47.0487 36.3273 47.0502 36.3164 47.052 36.3056C47.0536 36.2962 47.0557 36.2869 47.0569 36.2772C47.0867 36.0383 47.6373 31.6209 47.8832 28.7645C47.8835 28.7618 47.8836 28.759 47.8838 28.7563C47.9546 27.9329 48 27.2395 48 26.815C48 21.7749 43.8995 17.6743 38.8593 17.6743ZM35.7149 19.0808H38.5914L38.224 23.2992H35.3475L35.7149 19.0808ZM16.0321 40.1373C13.8555 40.1373 12.0847 38.3665 12.0847 36.19C12.0847 34.0135 13.8556 32.2428 16.0321 32.2428C18.2086 32.2428 19.9793 34.0135 19.9793 36.19C19.9793 38.3665 18.2086 40.1373 16.0321 40.1373ZM37.9216 40.1373C35.7451 40.1373 33.9745 38.3665 33.9745 36.19C33.9745 34.0135 35.7452 32.2428 37.9216 32.2428C40.0983 32.2428 41.869 34.0135 41.869 36.19C41.869 38.3665 40.0983 40.1373 37.9216 40.1373ZM45.7373 35.4866H43.2279C42.8824 32.8658 40.6355 30.836 37.9218 30.836C35.2083 30.836 32.9615 32.8659 32.6159 35.4866H21.338C20.9924 32.8658 18.7457 30.836 16.0321 30.836C13.3185 30.836 11.0715 32.8659 10.726 35.4866H8.36872L8.95925 29.3925H34.172V29.3929C34.1724 29.3929 34.1727 29.3929 34.173 29.3929C34.1966 29.3929 34.2199 29.3915 34.243 29.3892C34.2473 29.3888 34.2515 29.3879 34.2558 29.3873C34.2742 29.3852 34.2925 29.3825 34.3105 29.379C34.3183 29.3774 34.3259 29.3752 34.3335 29.3734C34.3476 29.37 34.3617 29.3667 34.3754 29.3626C34.3847 29.3598 34.3936 29.3564 34.4027 29.3532C34.4145 29.3491 34.4264 29.345 34.4378 29.3404C34.4476 29.3363 34.4571 29.3318 34.4667 29.3273C34.4771 29.3225 34.4875 29.3178 34.4975 29.3125C34.5071 29.3074 34.5164 29.302 34.5259 29.2966C34.5356 29.2909 34.5451 29.2852 34.5545 29.2792C34.5636 29.2733 34.5722 29.2671 34.581 29.2609C34.5902 29.2544 34.5992 29.2476 34.6082 29.2406C34.6163 29.2341 34.6243 29.2275 34.6321 29.2206C34.641 29.2129 34.6498 29.2051 34.6582 29.1969C34.6653 29.1901 34.6724 29.183 34.6794 29.1758C34.6878 29.167 34.696 29.1579 34.704 29.1486C34.7103 29.1413 34.7165 29.134 34.7225 29.1265C34.7303 29.1167 34.7377 29.1065 34.745 29.0963C34.7505 29.0886 34.7559 29.0809 34.7611 29.0731C34.768 29.0625 34.7745 29.0516 34.7808 29.0405C34.7856 29.0323 34.7905 29.024 34.7948 29.0156C34.8007 29.0045 34.8058 28.9933 34.8111 28.9819C34.8152 28.9729 34.8195 28.9639 34.8232 28.9546C34.8278 28.9435 34.8316 28.9322 34.8357 28.9208C34.8391 28.9108 34.8428 28.9008 34.8459 28.8904C34.849 28.8796 34.8515 28.8684 34.8543 28.8573C34.857 28.8462 34.86 28.8351 34.8622 28.8238C34.8644 28.8127 34.8657 28.8015 34.8674 28.7902C34.869 28.7786 34.871 28.7672 34.8721 28.7553C34.8723 28.7537 34.8727 28.7521 34.8728 28.7504L35.2252 24.7051H38.8592C41.0134 24.7051 41.9851 25.8212 43.0136 27.0031C43.8623 27.9782 44.8099 29.0661 46.4205 29.3315C46.2159 31.4944 45.8853 34.2709 45.7373 35.4866ZM46.5407 27.9225C45.4958 27.7095 44.853 26.9749 44.0742 26.0802C43.1002 24.9613 41.9112 23.5958 39.6318 23.3414L39.9956 19.165C43.7235 19.7163 46.5937 22.9365 46.5937 26.8152C46.5937 27.0787 46.5741 27.4616 46.5407 27.9225Z" fill="#52891D"/>
<path d="M16.032 33.6118C14.6105 33.6118 13.4539 34.7683 13.4539 36.19C13.4539 37.6116 14.6105 38.7681 16.032 38.7681C17.4535 38.7681 18.6101 37.6116 18.6101 36.19C18.6101 34.7684 17.4535 33.6118 16.032 33.6118ZM16.032 37.3618C15.3858 37.3618 14.8601 36.8362 14.8601 36.19C14.8601 35.5437 15.3858 35.0181 16.032 35.0181C16.6782 35.0181 17.2039 35.5437 17.2039 36.19C17.2039 36.8362 16.6781 37.3618 16.032 37.3618Z" fill="#52891D"/>
<path d="M37.9216 33.6118C36.5001 33.6118 35.3435 34.7683 35.3435 36.19C35.3435 37.6116 36.5001 38.7681 37.9216 38.7681C39.3432 38.7681 40.4998 37.6116 40.4998 36.19C40.4998 34.7684 39.3432 33.6118 37.9216 33.6118ZM37.9216 37.3618C37.2754 37.3618 36.7498 36.8362 36.7498 36.19C36.7498 35.5437 37.2754 35.0181 37.9216 35.0181C38.5679 35.0181 39.0935 35.5437 39.0935 36.19C39.0935 36.8362 38.5679 37.3618 37.9216 37.3618Z" fill="#52891D"/>
<path d="M6.6562 17.6745H3.21875C2.83034 17.6745 2.51562 17.9893 2.51562 18.3776C2.51562 18.7659 2.83034 19.0808 3.21875 19.0808H6.6562C7.04461 19.0808 7.35933 18.7659 7.35933 18.3776C7.35933 17.9893 7.04461 17.6745 6.6562 17.6745Z" fill="#52891D"/>
</svg>
